<mxfile host="65bd71144e">
    <diagram id="KzSSKoC_0s4XCb_z6a6-" name="Seite-1">
        <mxGraphModel dx="2963" dy="1300" grid="1" gridSize="10" guides="1" tooltips="1" connect="1" arrows="1" fold="1" page="1" pageScale="1" pageWidth="1169" pageHeight="827" math="0" shadow="0">
            <root>
                <mxCell id="0"/>
                <mxCell id="1" parent="0"/>
                <mxCell id="3" value="org-service-repository &lt;br&gt;(clone Ansible Deployment Framework)" style="text;html=1;strokeColor=none;fillColor=none;align=center;verticalAlign=middle;whiteSpace=wrap;rounded=0;fontSize=26;" parent="1" vertex="1">
                    <mxGeometry x="220" y="110" width="520" height="90" as="geometry"/>
                </mxCell>
                <mxCell id="5" value="" style="rounded=0;orthogonalLoop=1;jettySize=auto;html=1;entryX=0;entryY=0.5;entryDx=0;entryDy=0;" parent="1" source="4" target="9" edge="1">
                    <mxGeometry relative="1" as="geometry"/>
                </mxCell>
                <mxCell id="qz5UBDdwXePsKspNC7YG-51" value="Version #TAG" style="edgeLabel;html=1;align=center;verticalAlign=middle;resizable=0;points=[];" parent="5" vertex="1" connectable="0">
                    <mxGeometry x="-0.0727" y="-1" relative="1" as="geometry">
                        <mxPoint as="offset"/>
                    </mxGeometry>
                </mxCell>
                <mxCell id="4" value="ansible-rolle (extern)" style="shape=process;whiteSpace=wrap;html=1;backgroundOutline=1;fillColor=#ffe6cc;strokeColor=#d79b00;" parent="1" vertex="1">
                    <mxGeometry x="-220" y="1100" width="120" height="60" as="geometry"/>
                </mxCell>
                <mxCell id="11" value="" style="edgeStyle=orthogonalEdgeStyle;rounded=0;orthogonalLoop=1;jettySize=auto;html=1;" parent="1" source="6" target="10" edge="1">
                    <mxGeometry relative="1" as="geometry"/>
                </mxCell>
                <mxCell id="6" value="inventory (all.yml)" style="shape=cylinder3;whiteSpace=wrap;html=1;boundedLbl=1;backgroundOutline=1;size=15;" parent="1" vertex="1">
                    <mxGeometry x="-30" y="310" width="60" height="80" as="geometry"/>
                </mxCell>
                <mxCell id="7" value="playbooks (ansible-playbooks)" style="shape=process;whiteSpace=wrap;html=1;backgroundOutline=1;" parent="1" vertex="1">
                    <mxGeometry x="260" y="750" width="210" height="60" as="geometry"/>
                </mxCell>
                <mxCell id="13" value="" style="rounded=0;orthogonalLoop=1;jettySize=auto;html=1;" parent="1" source="8" target="10" edge="1">
                    <mxGeometry relative="1" as="geometry"/>
                </mxCell>
                <mxCell id="8" value="roles (ansible-local-roles)" style="shape=process;whiteSpace=wrap;html=1;backgroundOutline=1;" parent="1" vertex="1">
                    <mxGeometry x="260" y="850" width="210" height="60" as="geometry"/>
                </mxCell>
                <mxCell id="14" value="" style="rounded=0;orthogonalLoop=1;jettySize=auto;html=1;" parent="1" source="9" target="10" edge="1">
                    <mxGeometry relative="1" as="geometry"/>
                </mxCell>
                <mxCell id="9" value="roles (requirements.yml)" style="shape=process;whiteSpace=wrap;html=1;backgroundOutline=1;" parent="1" vertex="1">
                    <mxGeometry x="260" y="950" width="210" height="60" as="geometry"/>
                </mxCell>
                <mxCell id="12" value="" style="rounded=0;orthogonalLoop=1;jettySize=auto;html=1;startArrow=none;startFill=1;endArrow=none;endFill=0;" parent="1" source="52" target="7" edge="1">
                    <mxGeometry relative="1" as="geometry"/>
                </mxCell>
                <mxCell id="17" value="" style="edgeStyle=none;rounded=0;orthogonalLoop=1;jettySize=auto;html=1;startArrow=none;startFill=0;endArrow=classic;endFill=1;fontSize=26;entryX=0;entryY=0.5;entryDx=0;entryDy=0;" parent="1" source="10" target="55" edge="1">
                    <mxGeometry relative="1" as="geometry"/>
                </mxCell>
                <mxCell id="10" value="Gitlab CI/CD" style="label;whiteSpace=wrap;html=1;align=center;verticalAlign=bottom;spacingLeft=0;spacingBottom=4;imageAlign=center;imageVerticalAlign=top;image=img/clipart/Gear_128x128.png" parent="1" vertex="1">
                    <mxGeometry x="310" y="460" width="115" height="80" as="geometry"/>
                </mxCell>
                <mxCell id="20" value="" style="edgeStyle=none;rounded=0;orthogonalLoop=1;jettySize=auto;html=1;startArrow=none;startFill=0;endArrow=classic;endFill=1;fontSize=19;" parent="1" source="15" target="18" edge="1">
                    <mxGeometry relative="1" as="geometry"/>
                </mxCell>
                <mxCell id="15" value="validate" style="html=1;whiteSpace=wrap;container=1;recursiveResize=0;collapsible=0;fontSize=19;fillColor=#008a00;fontColor=#ffffff;strokeColor=#005700;" parent="1" vertex="1">
                    <mxGeometry x="1070" y="470" width="160" height="70" as="geometry"/>
                </mxCell>
                <mxCell id="16" value="" style="triangle;html=1;whiteSpace=wrap;" parent="15" vertex="1">
                    <mxGeometry x="20" y="20" width="20" height="30" as="geometry"/>
                </mxCell>
                <mxCell id="18" value="Build" style="html=1;whiteSpace=wrap;container=1;recursiveResize=0;collapsible=0;fontSize=19;fillColor=#008a00;fontColor=#ffffff;strokeColor=#005700;" parent="1" vertex="1">
                    <mxGeometry x="1260" y="470" width="160" height="70" as="geometry"/>
                </mxCell>
                <mxCell id="19" value="" style="triangle;html=1;whiteSpace=wrap;" parent="18" vertex="1">
                    <mxGeometry x="20" y="20" width="20" height="30" as="geometry"/>
                </mxCell>
                <mxCell id="21" value="preflight" style="html=1;whiteSpace=wrap;container=1;recursiveResize=0;collapsible=0;fontSize=19;fillColor=#008a00;fontColor=#ffffff;strokeColor=#005700;" parent="1" vertex="1">
                    <mxGeometry x="1830" y="475" width="160" height="70" as="geometry"/>
                </mxCell>
                <mxCell id="22" value="" style="triangle;html=1;whiteSpace=wrap;" parent="21" vertex="1">
                    <mxGeometry x="20" y="20" width="20" height="30" as="geometry"/>
                </mxCell>
                <mxCell id="23" value="&lt;meta charset=&quot;utf-8&quot;&gt;&lt;div style=&quot;color: rgb(212, 212, 212); background-color: rgb(30, 30, 30); font-family: &amp;quot;droid sans mono&amp;quot;, monospace, monospace, &amp;quot;droid sans fallback&amp;quot;; font-weight: normal; font-size: 14px; line-height: 19px;&quot;&gt;&lt;div&gt;&lt;span style=&quot;color: #d4d4d4&quot;&gt;  - &lt;/span&gt;&lt;span style=&quot;color: #ce9178&quot;&gt;preflight&lt;/span&gt;&lt;/div&gt;&lt;div&gt;&lt;span style=&quot;color: #d4d4d4&quot;&gt;  - &lt;/span&gt;&lt;span style=&quot;color: #ce9178&quot;&gt;deploy-test&lt;/span&gt;&lt;/div&gt;&lt;div&gt;&lt;span style=&quot;color: #d4d4d4&quot;&gt;  - &lt;/span&gt;&lt;span style=&quot;color: #ce9178&quot;&gt;prepare-canary&lt;/span&gt;&lt;/div&gt;&lt;div&gt;&lt;span style=&quot;color: #d4d4d4&quot;&gt;  - &lt;/span&gt;&lt;span style=&quot;color: #ce9178&quot;&gt;deploy-canary&lt;/span&gt;&lt;/div&gt;&lt;div&gt;&lt;span style=&quot;color: #d4d4d4&quot;&gt;  - &lt;/span&gt;&lt;span style=&quot;color: #ce9178&quot;&gt;prepare-production&lt;/span&gt;&lt;/div&gt;&lt;div&gt;&lt;span style=&quot;color: #d4d4d4&quot;&gt;  - &lt;/span&gt;&lt;span style=&quot;color: #ce9178&quot;&gt;deploy-production&lt;/span&gt;&lt;/div&gt;&lt;/div&gt;" style="text;whiteSpace=wrap;html=1;fontSize=19;" parent="1" vertex="1">
                    <mxGeometry x="970" y="200" width="190" height="130" as="geometry"/>
                </mxCell>
                <mxCell id="28" value="&lt;font style=&quot;font-size: 18px&quot;&gt;prepare&lt;/font&gt;" style="html=1;whiteSpace=wrap;container=1;recursiveResize=0;collapsible=0;fontSize=10;fillColor=#008a00;fontColor=#ffffff;strokeColor=#005700;" parent="1" vertex="1">
                    <mxGeometry x="2030" y="485" width="210" height="70" as="geometry"/>
                </mxCell>
                <mxCell id="29" value="" style="triangle;html=1;whiteSpace=wrap;" parent="28" vertex="1">
                    <mxGeometry x="20" y="20" width="20" height="30" as="geometry"/>
                </mxCell>
                <mxCell id="30" value="&lt;font style=&quot;font-size: 18px&quot;&gt;review&lt;/font&gt;" style="html=1;whiteSpace=wrap;container=1;recursiveResize=0;collapsible=0;fontSize=10;" parent="1" vertex="1">
                    <mxGeometry x="2310" y="590" width="160" height="70" as="geometry"/>
                </mxCell>
                <mxCell id="31" value="" style="triangle;html=1;whiteSpace=wrap;" parent="30" vertex="1">
                    <mxGeometry x="20" y="20" width="20" height="30" as="geometry"/>
                </mxCell>
                <mxCell id="32" value="&lt;font style=&quot;font-size: 18px&quot;&gt;canary&lt;/font&gt;" style="html=1;whiteSpace=wrap;container=1;recursiveResize=0;collapsible=0;fontSize=10;" parent="1" vertex="1">
                    <mxGeometry x="2030" y="690" width="210" height="70" as="geometry"/>
                </mxCell>
                <mxCell id="33" value="" style="triangle;html=1;whiteSpace=wrap;" parent="32" vertex="1">
                    <mxGeometry x="20" y="20" width="20" height="30" as="geometry"/>
                </mxCell>
                <mxCell id="34" value="&lt;font style=&quot;font-size: 18px&quot;&gt;canary&lt;/font&gt;" style="html=1;whiteSpace=wrap;container=1;recursiveResize=0;collapsible=0;fontSize=10;" parent="1" vertex="1">
                    <mxGeometry x="2314" y="690" width="156" height="70" as="geometry"/>
                </mxCell>
                <mxCell id="35" value="" style="triangle;html=1;whiteSpace=wrap;" parent="34" vertex="1">
                    <mxGeometry x="20" y="20" width="20" height="30" as="geometry"/>
                </mxCell>
                <mxCell id="36" value="&lt;font style=&quot;font-size: 18px&quot;&gt;production&lt;/font&gt;" style="html=1;whiteSpace=wrap;container=1;recursiveResize=0;collapsible=0;fontSize=10;" parent="1" vertex="1">
                    <mxGeometry x="2030" y="790" width="210" height="70" as="geometry"/>
                </mxCell>
                <mxCell id="37" value="" style="triangle;html=1;whiteSpace=wrap;" parent="36" vertex="1">
                    <mxGeometry x="20" y="20" width="20" height="30" as="geometry"/>
                </mxCell>
                <mxCell id="40" value="&lt;font style=&quot;font-size: 18px&quot;&gt;publish&lt;/font&gt;" style="html=1;whiteSpace=wrap;container=1;recursiveResize=0;collapsible=0;fontSize=10;fillColor=#008a00;fontColor=#ffffff;strokeColor=#005700;" parent="1" vertex="1">
                    <mxGeometry x="1640" y="475" width="160" height="70" as="geometry"/>
                </mxCell>
                <mxCell id="41" value="" style="triangle;html=1;whiteSpace=wrap;" parent="40" vertex="1">
                    <mxGeometry x="20" y="20" width="20" height="30" as="geometry"/>
                </mxCell>
                <mxCell id="42" value="&lt;font style=&quot;font-size: 18px&quot;&gt;review&lt;/font&gt;" style="html=1;whiteSpace=wrap;container=1;recursiveResize=0;collapsible=0;fontSize=10;" parent="1" vertex="1">
                    <mxGeometry x="2030" y="580" width="210" height="70" as="geometry"/>
                </mxCell>
                <mxCell id="43" value="" style="triangle;html=1;whiteSpace=wrap;" parent="42" vertex="1">
                    <mxGeometry x="20" y="20" width="20" height="30" as="geometry"/>
                </mxCell>
                <mxCell id="25" value="&lt;font style=&quot;font-size: 18px&quot;&gt;deploy&lt;/font&gt;" style="html=1;whiteSpace=wrap;container=1;recursiveResize=0;collapsible=0;fontSize=10;fillColor=#008a00;fontColor=#ffffff;strokeColor=#005700;" parent="1" vertex="1">
                    <mxGeometry x="2310" y="490" width="160" height="70" as="geometry"/>
                </mxCell>
                <mxCell id="26" value="" style="triangle;html=1;whiteSpace=wrap;" parent="25" vertex="1">
                    <mxGeometry x="20" y="20" width="20" height="30" as="geometry"/>
                </mxCell>
                <mxCell id="44" value="&lt;font style=&quot;font-size: 18px&quot;&gt;production&lt;/font&gt;" style="html=1;whiteSpace=wrap;container=1;recursiveResize=0;collapsible=0;fontSize=10;" parent="1" vertex="1">
                    <mxGeometry x="2310" y="790" width="160" height="70" as="geometry"/>
                </mxCell>
                <mxCell id="45" value="" style="triangle;html=1;whiteSpace=wrap;" parent="44" vertex="1">
                    <mxGeometry x="20" y="20" width="20" height="30" as="geometry"/>
                </mxCell>
                <mxCell id="46" value="config" style="html=1;whiteSpace=wrap;container=1;recursiveResize=0;collapsible=0;fontSize=19;" parent="1" vertex="1">
                    <mxGeometry x="1260" y="565" width="160" height="70" as="geometry"/>
                </mxCell>
                <mxCell id="47" value="" style="triangle;html=1;whiteSpace=wrap;" parent="46" vertex="1">
                    <mxGeometry x="20" y="20" width="20" height="30" as="geometry"/>
                </mxCell>
                <mxCell id="48" value="docs" style="html=1;whiteSpace=wrap;container=1;recursiveResize=0;collapsible=0;fontSize=19;" parent="1" vertex="1">
                    <mxGeometry x="1260" y="675" width="160" height="70" as="geometry"/>
                </mxCell>
                <mxCell id="49" value="" style="triangle;html=1;whiteSpace=wrap;" parent="48" vertex="1">
                    <mxGeometry x="20" y="20" width="20" height="30" as="geometry"/>
                </mxCell>
                <mxCell id="50" value="docs" style="html=1;whiteSpace=wrap;container=1;recursiveResize=0;collapsible=0;fontSize=19;" parent="1" vertex="1">
                    <mxGeometry x="1600" y="575" width="160" height="70" as="geometry"/>
                </mxCell>
                <mxCell id="51" value="" style="triangle;html=1;whiteSpace=wrap;" parent="50" vertex="1">
                    <mxGeometry x="20" y="20" width="20" height="30" as="geometry"/>
                </mxCell>
                <mxCell id="qz5UBDdwXePsKspNC7YG-53" value="Version #TAG" style="rounded=0;orthogonalLoop=1;jettySize=auto;html=1;" parent="1" source="qz5UBDdwXePsKspNC7YG-52" target="9" edge="1">
                    <mxGeometry relative="1" as="geometry"/>
                </mxCell>
                <mxCell id="qz5UBDdwXePsKspNC7YG-52" value="ansible-collection-cicd (extern)" style="shape=process;whiteSpace=wrap;html=1;backgroundOutline=1;fillColor=#dae8fc;strokeColor=#6c8ebf;" parent="1" vertex="1">
                    <mxGeometry x="-220" y="820" width="120" height="60" as="geometry"/>
                </mxCell>
                <mxCell id="qz5UBDdwXePsKspNC7YG-54" value="SAST" style="html=1;whiteSpace=wrap;container=1;recursiveResize=0;collapsible=0;fontSize=10;fillColor=#008a00;fontColor=#ffffff;strokeColor=#005700;" parent="1" vertex="1">
                    <mxGeometry x="1450" y="475" width="160" height="70" as="geometry"/>
                </mxCell>
                <mxCell id="qz5UBDdwXePsKspNC7YG-55" value="" style="triangle;html=1;whiteSpace=wrap;" parent="qz5UBDdwXePsKspNC7YG-54" vertex="1">
                    <mxGeometry x="20" y="20" width="20" height="30" as="geometry"/>
                </mxCell>
                <mxCell id="qz5UBDdwXePsKspNC7YG-57" value="verfy/DAST" style="html=1;whiteSpace=wrap;container=1;recursiveResize=0;collapsible=0;fontSize=10;fillColor=#008a00;fontColor=#ffffff;strokeColor=#005700;" parent="1" vertex="1">
                    <mxGeometry x="2530" y="490" width="160" height="70" as="geometry"/>
                </mxCell>
                <mxCell id="qz5UBDdwXePsKspNC7YG-58" value="" style="triangle;html=1;whiteSpace=wrap;" parent="qz5UBDdwXePsKspNC7YG-57" vertex="1">
                    <mxGeometry x="20" y="20" width="20" height="30" as="geometry"/>
                </mxCell>
                <mxCell id="53" value="" style="rounded=0;orthogonalLoop=1;jettySize=auto;html=1;startArrow=classic;startFill=1;endArrow=none;endFill=0;" parent="1" source="10" target="52" edge="1">
                    <mxGeometry relative="1" as="geometry">
                        <mxPoint x="367.14285714285734" y="540" as="sourcePoint"/>
                        <mxPoint x="365.26785714285734" y="750" as="targetPoint"/>
                    </mxGeometry>
                </mxCell>
                <mxCell id="52" value="Deployment Sidecar devcontainer" style="shape=process;whiteSpace=wrap;html=1;backgroundOutline=1;" parent="1" vertex="1">
                    <mxGeometry x="260" y="575" width="210" height="60" as="geometry"/>
                </mxCell>
                <mxCell id="54" value="Deployment Sidecar ansible execution environment" style="shape=process;whiteSpace=wrap;html=1;backgroundOutline=1;" parent="1" vertex="1">
                    <mxGeometry x="260" y="670" width="210" height="60" as="geometry"/>
                </mxCell>
                <mxCell id="55" value="build deployment sidecar" style="html=1;whiteSpace=wrap;container=1;recursiveResize=0;collapsible=0;fontSize=19;fillColor=#a20025;strokeColor=#6F0000;fontColor=#ffffff;" parent="1" vertex="1">
                    <mxGeometry x="530" y="470" width="160" height="70" as="geometry"/>
                </mxCell>
                <mxCell id="56" value="" style="triangle;html=1;whiteSpace=wrap;" parent="55" vertex="1">
                    <mxGeometry x="20" y="20" width="20" height="30" as="geometry"/>
                </mxCell>
                <mxCell id="57" value="release deployment sidecar image" style="html=1;whiteSpace=wrap;container=1;recursiveResize=0;collapsible=0;fontSize=19;fillColor=#a20025;fontColor=#ffffff;strokeColor=#6F0000;" parent="1" vertex="1">
                    <mxGeometry x="880" y="470" width="160" height="70" as="geometry"/>
                </mxCell>
                <mxCell id="58" value="" style="triangle;html=1;whiteSpace=wrap;" parent="57" vertex="1">
                    <mxGeometry x="20" y="20" width="20" height="30" as="geometry"/>
                </mxCell>
                <mxCell id="59" value="build ansible-ee" style="html=1;whiteSpace=wrap;container=1;recursiveResize=0;collapsible=0;fontSize=19;fillColor=#008a00;strokeColor=#005700;fontColor=#ffffff;" parent="1" vertex="1">
                    <mxGeometry x="530" y="675" width="160" height="70" as="geometry"/>
                </mxCell>
                <mxCell id="60" value="" style="triangle;html=1;whiteSpace=wrap;" parent="59" vertex="1">
                    <mxGeometry x="20" y="20" width="20" height="30" as="geometry"/>
                </mxCell>
                <mxCell id="61" value="build image&lt;br&gt;(docker)" style="html=1;whiteSpace=wrap;container=1;recursiveResize=0;collapsible=0;fontSize=19;fillColor=#008a00;strokeColor=#005700;fontColor=#ffffff;" parent="1" vertex="1">
                    <mxGeometry x="720" y="675" width="160" height="70" as="geometry"/>
                </mxCell>
                <mxCell id="62" value="" style="triangle;html=1;whiteSpace=wrap;" parent="61" vertex="1">
                    <mxGeometry x="20" y="20" width="20" height="30" as="geometry"/>
                </mxCell>
                <mxCell id="63" value="validate ansible ee" style="html=1;whiteSpace=wrap;container=1;recursiveResize=0;collapsible=0;fontSize=19;fillColor=#008a00;strokeColor=#005700;fontColor=#ffffff;" parent="1" vertex="1">
                    <mxGeometry x="1070" y="675" width="160" height="70" as="geometry"/>
                </mxCell>
                <mxCell id="64" value="" style="triangle;html=1;whiteSpace=wrap;" parent="63" vertex="1">
                    <mxGeometry x="20" y="20" width="20" height="30" as="geometry"/>
                </mxCell>
                <mxCell id="65" value="build deployment sidecar image" style="html=1;whiteSpace=wrap;container=1;recursiveResize=0;collapsible=0;fontSize=19;fillColor=#a20025;strokeColor=#6F0000;fontColor=#ffffff;" vertex="1" parent="1">
                    <mxGeometry x="710" y="470" width="160" height="70" as="geometry"/>
                </mxCell>
                <mxCell id="66" value="" style="triangle;html=1;whiteSpace=wrap;" vertex="1" parent="65">
                    <mxGeometry x="20" y="20" width="20" height="30" as="geometry"/>
                </mxCell>
                <mxCell id="67" value="upload image (registry)" style="html=1;whiteSpace=wrap;container=1;recursiveResize=0;collapsible=0;fontSize=19;fillColor=#008a00;strokeColor=#005700;fontColor=#ffffff;" vertex="1" parent="1">
                    <mxGeometry x="890" y="675" width="160" height="70" as="geometry"/>
                </mxCell>
                <mxCell id="68" value="" style="triangle;html=1;whiteSpace=wrap;" vertex="1" parent="67">
                    <mxGeometry x="20" y="20" width="20" height="30" as="geometry"/>
                </mxCell>
            </root>
        </mxGraphModel>
    </diagram>
</mxfile>